EESchema Schematic File Version 4
EELAYER 30 0
EELAYER END
$Descr A4 11693 8268
encoding utf-8
Sheet 1 1
Title "Raspberry Pi Zero (W) uHAT Template Board"
Date "2019-02-28"
Rev "1.0"
Comp ""
Comment1 "This Schematic is licensed under MIT Open Source License."
Comment2 ""
Comment3 ""
Comment4 ""
$EndDescr
$Comp
L Device:R_Small R1
U 1 1 60B3ED5B
P 5550 1100
F 0 "R1" H 5609 1146 50  0000 L CNN
F 1 "220" H 5609 1055 50  0000 L CNN
F 2 "Resistor_THT:R_Axial_DIN0204_L3.6mm_D1.6mm_P1.90mm_Vertical" H 5550 1100 50  0001 C CNN
F 3 "~" H 5550 1100 50  0001 C CNN
	1    5550 1100
	1    0    0    -1  
$EndComp
Wire Wire Line
	5750 1000 5750 1200
Wire Wire Line
	6150 1400 6150 1000
Wire Wire Line
	6150 1000 5750 1000
Connection ~ 5750 1000
$Comp
L Diode:1N5818 D1
U 1 1 60B402B7
P 5750 2150
F 0 "D1" V 5704 2230 50  0000 L CNN
F 1 "1N5818" V 5795 2230 50  0000 L CNN
F 2 "Diode_THT:D_DO-41_SOD81_P2.54mm_Vertical_AnodeUp" H 5750 1975 50  0001 C CNN
F 3 "http://www.vishay.com/docs/88525/1n5817.pdf" H 5750 2150 50  0001 C CNN
	1    5750 2150
	0    1    1    0   
$EndComp
$Comp
L Device:L_Small L1
U 1 1 60B4AADB
P 6000 2000
F 0 "L1" H 6048 2046 50  0000 L CNN
F 1 "100uF" H 6048 1955 50  0000 L CNN
F 2 "Inductor_SMD:L_6.3x6.3_H3" H 6000 2000 50  0001 C CNN
F 3 "~" H 6000 2000 50  0001 C CNN
	1    6000 2000
	0    -1   -1   0   
$EndComp
Wire Wire Line
	5550 2000 5550 2300
Wire Wire Line
	5550 2300 5750 2300
$Comp
L Device:CP_Small C1
U 1 1 60B42830
P 6250 2150
F 0 "C1" H 6338 2196 50  0000 L CNN
F 1 "100uF" H 6338 2105 50  0000 L CNN
F 2 "Capacitor_SMD:CP_Elec_4x3" H 6250 2150 50  0001 C CNN
F 3 "~" H 6250 2150 50  0001 C CNN
	1    6250 2150
	1    0    0    -1  
$EndComp
Wire Wire Line
	6150 1600 6250 1600
Wire Wire Line
	6250 2300 5750 2300
Connection ~ 5750 2300
$Comp
L power:GND #PWR01
U 1 1 60B527DF
P 6250 2300
F 0 "#PWR01" H 6250 2050 50  0001 C CNN
F 1 "GND" H 6255 2127 50  0000 C CNN
F 2 "" H 6250 2300 50  0001 C CNN
F 3 "" H 6250 2300 50  0001 C CNN
	1    6250 2300
	1    0    0    -1  
$EndComp
Wire Wire Line
	6250 1600 6250 2000
Wire Wire Line
	5750 2000 5900 2000
Wire Wire Line
	6100 2000 6250 2000
Connection ~ 6250 2000
Wire Wire Line
	6250 2000 6250 2050
Wire Wire Line
	6250 2300 6250 2250
Connection ~ 6250 2300
$Comp
L Device:R_Small R7
U 1 1 60B3D237
P 9250 1900
F 0 "R7" H 9309 1946 50  0000 L CNN
F 1 "500" H 9309 1855 50  0000 L CNN
F 2 "Resistor_THT:R_Axial_DIN0204_L3.6mm_D1.6mm_P1.90mm_Vertical" H 9250 1900 50  0001 C CNN
F 3 "~" H 9250 1900 50  0001 C CNN
	1    9250 1900
	-1   0    0    1   
$EndComp
$Comp
L Device:R_Small R8
U 1 1 60B3FB06
P 6700 1700
F 0 "R8" H 6759 1746 50  0000 L CNN
F 1 "1" H 6759 1655 50  0000 L CNN
F 2 "Resistor_THT:R_Axial_DIN0204_L3.6mm_D1.6mm_P1.90mm_Vertical" H 6700 1700 50  0001 C CNN
F 3 "~" H 6700 1700 50  0001 C CNN
	1    6700 1700
	1    0    0    -1  
$EndComp
$Comp
L Device:LED D3
U 1 1 60B408D6
P 6700 1950
F 0 "D3" V 6739 1832 50  0000 R CNN
F 1 "LED" V 6648 1832 50  0000 R CNN
F 2 "LED_THT:LED_D1.8mm_W1.8mm_H2.4mm_Horizontal_O1.27mm_Z1.6mm" H 6700 1950 50  0001 C CNN
F 3 "~" H 6700 1950 50  0001 C CNN
	1    6700 1950
	0    -1   -1   0   
$EndComp
$Comp
L power:GND #PWR04
U 1 1 60B41224
P 6700 2100
F 0 "#PWR04" H 6700 1850 50  0001 C CNN
F 1 "GND" H 6705 1927 50  0000 C CNN
F 2 "" H 6700 2100 50  0001 C CNN
F 3 "" H 6700 2100 50  0001 C CNN
	1    6700 2100
	1    0    0    -1  
$EndComp
$Comp
L Device:R_Small R2
U 1 1 60B3CD71
P 8300 3750
F 0 "R2" V 8104 3750 50  0000 C CNN
F 1 "1k" V 8195 3750 50  0000 C CNN
F 2 "Resistor_THT:R_Axial_DIN0204_L3.6mm_D1.6mm_P1.90mm_Vertical" H 8300 3750 50  0001 C CNN
F 3 "~" H 8300 3750 50  0001 C CNN
	1    8300 3750
	0    -1   1    0   
$EndComp
$Comp
L Device:R_Small R4
U 1 1 60B3D542
P 7700 3650
F 0 "R4" V 7504 3650 50  0000 C CNN
F 1 "330" V 7595 3650 50  0000 C CNN
F 2 "Resistor_THT:R_Axial_DIN0204_L3.6mm_D1.6mm_P1.90mm_Vertical" H 7700 3650 50  0001 C CNN
F 3 "~" H 7700 3650 50  0001 C CNN
	1    7700 3650
	0    -1   1    0   
$EndComp
$Comp
L Device:R_Small R5
U 1 1 60B3E23E
P 7150 3950
F 0 "R5" V 6954 3950 50  0000 C CNN
F 1 "1k" V 7045 3950 50  0000 C CNN
F 2 "Resistor_THT:R_Axial_DIN0204_L3.6mm_D1.6mm_P1.90mm_Vertical" H 7150 3950 50  0001 C CNN
F 3 "~" H 7150 3950 50  0001 C CNN
	1    7150 3950
	0    -1   1    0   
$EndComp
$Comp
L Device:R_Small R6
U 1 1 60B3F4EB
P 6950 3700
F 0 "R6" V 6754 3700 50  0000 C CNN
F 1 "1k" V 6845 3700 50  0000 C CNN
F 2 "Resistor_THT:R_Axial_DIN0204_L3.6mm_D1.6mm_P1.90mm_Vertical" H 6950 3700 50  0001 C CNN
F 3 "~" H 6950 3700 50  0001 C CNN
	1    6950 3700
	0    -1   1    0   
$EndComp
$Comp
L Amplifier_Operational:LM358 U2
U 1 1 60B43FAC
P 7550 3950
F 0 "U2" H 7550 4317 50  0000 C CNN
F 1 "LM358" H 7550 4226 50  0000 C CNN
F 2 "Package_CSP:LFCSP-8_2x2mm_P0.5mm" H 7550 3950 50  0001 C CNN
F 3 "http://www.ti.com/lit/ds/symlink/lm2904-n.pdf" H 7550 3950 50  0001 C CNN
	1    7550 3950
	-1   0    0    1   
$EndComp
Wire Wire Line
	7900 3850 7900 3650
Wire Wire Line
	7900 3650 7800 3650
Wire Wire Line
	7900 3850 7850 3850
Connection ~ 7250 3950
Wire Wire Line
	7250 3650 7600 3650
Wire Wire Line
	7250 3650 7250 3950
Wire Wire Line
	7050 3950 7050 3700
$Comp
L Amplifier_Operational:LM358 U3
U 1 1 60B5BEB5
P 6750 4050
F 0 "U3" H 6750 3683 50  0000 C CNN
F 1 "LM358" H 6750 3774 50  0000 C CNN
F 2 "Package_CSP:LFCSP-8_2x2mm_P0.5mm" H 6750 4050 50  0001 C CNN
F 3 "http://www.ti.com/lit/ds/symlink/lm2904-n.pdf" H 6750 4050 50  0001 C CNN
	1    6750 4050
	-1   0    0    1   
$EndComp
Connection ~ 7050 3950
Wire Wire Line
	6850 3700 6450 3700
Wire Wire Line
	6450 3700 6450 4050
$Comp
L power:GND #PWR03
U 1 1 60B5EDF6
P 7050 4150
F 0 "#PWR03" H 7050 3900 50  0001 C CNN
F 1 "GND" H 7055 3977 50  0000 C CNN
F 2 "" H 7050 4150 50  0001 C CNN
F 3 "" H 7050 4150 50  0001 C CNN
	1    7050 4150
	-1   0    0    -1  
$EndComp
$Comp
L Device:R_Small R3
U 1 1 60B6A95D
P 8300 4050
F 0 "R3" V 8104 4050 50  0000 C CNN
F 1 "1k" V 8195 4050 50  0000 C CNN
F 2 "Resistor_THT:R_Axial_DIN0204_L3.6mm_D1.6mm_P1.90mm_Vertical" H 8300 4050 50  0001 C CNN
F 3 "~" H 8300 4050 50  0001 C CNN
	1    8300 4050
	0    -1   1    0   
$EndComp
Wire Wire Line
	8200 4050 8000 4050
Wire Wire Line
	8200 3750 8000 3750
Wire Wire Line
	8000 3750 8000 3850
Wire Wire Line
	7900 3850 8000 3850
Connection ~ 7900 3850
Connection ~ 8000 3850
Wire Wire Line
	8000 3850 8000 4050
$Comp
L power:GND #PWR02
U 1 1 60B6D05E
P 7850 4050
F 0 "#PWR02" H 7850 3800 50  0001 C CNN
F 1 "GND" H 7855 3877 50  0000 C CNN
F 2 "" H 7850 4050 50  0001 C CNN
F 3 "" H 7850 4050 50  0001 C CNN
	1    7850 4050
	-1   0    0    -1  
$EndComp
Wire Wire Line
	6450 4050 6100 4050
Connection ~ 6450 4050
Wire Wire Line
	6250 1600 6700 1600
Connection ~ 6250 1600
$Comp
L Driver_Motor:L293D U4
U 1 1 60B750E5
P 9850 2500
F 0 "U4" H 9850 3681 50  0000 C CNN
F 1 "L293D" H 9850 3590 50  0000 C CNN
F 2 "Package_DIP:DIP-16_W7.62mm" H 10100 1750 50  0001 L CNN
F 3 "http://www.ti.com/lit/ds/symlink/l293.pdf" H 9550 3200 50  0001 C CNN
	1    9850 2500
	0    -1   -1   0   
$EndComp
$Comp
L Transistor_FET:DMG2301L Q2
U 1 1 60B75786
P 7650 2250
F 0 "Q2" V 7992 2250 50  0000 C CNN
F 1 "DMG2301L" V 7901 2250 50  0000 C CNN
F 2 "Package_TO_SOT_SMD:SOT-23" H 7850 2175 50  0001 L CIN
F 3 "https://www.diodes.com/assets/Datasheets/DMG2301L.pdf" H 7650 2250 50  0001 L CNN
	1    7650 2250
	0    1    -1   0   
$EndComp
$Comp
L Transistor_BJT:BC560 Q1
U 1 1 60B77982
P 7900 2450
F 0 "Q1" H 8091 2404 50  0000 L CNN
F 1 "BC560" H 8091 2495 50  0000 L CNN
F 2 "Package_TO_SOT_THT:TO-92_Inline" H 8100 2375 50  0001 L CIN
F 3 "https://www.onsemi.com/pub/Collateral/BC556BTA-D.pdf" H 7900 2450 50  0001 L CNN
	1    7900 2450
	1    0    0    1   
$EndComp
$Comp
L Device:R_Small R9
U 1 1 60B787CB
P 8000 2900
F 0 "R9" H 7941 2946 50  0000 R CNN
F 1 "10k" H 7941 2855 50  0000 R CNN
F 2 "Resistor_THT:R_Axial_DIN0204_L3.6mm_D1.6mm_P1.90mm_Vertical" H 8000 2900 50  0001 C CNN
F 3 "~" H 8000 2900 50  0001 C CNN
	1    8000 2900
	-1   0    0    -1  
$EndComp
$Comp
L Device:R_Small R10
U 1 1 60B78DC5
P 7300 2900
F 0 "R10" H 7241 2946 50  0000 R CNN
F 1 "47k" H 7241 2855 50  0000 R CNN
F 2 "Resistor_THT:R_Axial_DIN0204_L3.6mm_D1.6mm_P1.90mm_Vertical" H 7300 2900 50  0001 C CNN
F 3 "~" H 7300 2900 50  0001 C CNN
	1    7300 2900
	-1   0    0    -1  
$EndComp
$Comp
L power:GND #PWR05
U 1 1 60B87359
P 8000 3000
F 0 "#PWR05" H 8000 2750 50  0001 C CNN
F 1 "GND" H 8005 2827 50  0000 C CNN
F 2 "" H 8000 3000 50  0001 C CNN
F 3 "" H 8000 3000 50  0001 C CNN
	1    8000 3000
	-1   0    0    -1  
$EndComp
$Comp
L power:GND #PWR06
U 1 1 60B87C3D
P 7300 3000
F 0 "#PWR06" H 7300 2750 50  0001 C CNN
F 1 "GND" H 7305 2827 50  0000 C CNN
F 2 "" H 7300 3000 50  0001 C CNN
F 3 "" H 7300 3000 50  0001 C CNN
	1    7300 3000
	-1   0    0    -1  
$EndComp
Wire Wire Line
	7450 2150 7350 2150
$Comp
L Transistor_BJT:BC560 Q3
U 1 1 60B77ED0
P 7400 2450
F 0 "Q3" H 7591 2404 50  0000 L CNN
F 1 "BC560" H 7591 2495 50  0000 L CNN
F 2 "Package_TO_SOT_THT:TO-92_Inline" H 7600 2375 50  0001 L CIN
F 3 "https://www.onsemi.com/pub/Collateral/BC556BTA-D.pdf" H 7400 2450 50  0001 L CNN
	1    7400 2450
	-1   0    0    1   
$EndComp
Wire Wire Line
	7300 2250 7300 2150
Wire Wire Line
	8000 2250 8000 2150
Wire Wire Line
	8000 2150 7850 2150
Wire Wire Line
	8000 2650 8000 2700
Wire Wire Line
	7600 2450 7600 2700
Wire Wire Line
	7600 2700 7700 2700
Connection ~ 8000 2700
Wire Wire Line
	8000 2700 8000 2800
Wire Wire Line
	7700 2450 7700 2700
Connection ~ 7700 2700
Wire Wire Line
	7700 2700 8000 2700
Wire Wire Line
	7300 2650 7300 2750
Wire Wire Line
	7650 2450 7650 2750
Wire Wire Line
	7650 2750 7300 2750
Connection ~ 7300 2750
Wire Wire Line
	7300 2750 7300 2800
Connection ~ 6700 1600
Wire Wire Line
	8600 1600 8600 2400
Wire Wire Line
	8450 1600 8450 2600
Wire Wire Line
	8450 1600 8600 1600
Wire Wire Line
	6700 1600 8000 1600
Connection ~ 8000 2150
Connection ~ 8000 1600
Connection ~ 8450 1600
$Comp
L power:GND #PWR07
U 1 1 60C16400
P 10750 2750
F 0 "#PWR07" H 10750 2500 50  0001 C CNN
F 1 "GND" H 10755 2577 50  0000 C CNN
F 2 "" H 10750 2750 50  0001 C CNN
F 3 "" H 10750 2750 50  0001 C CNN
	1    10750 2750
	1    0    0    -1  
$EndComp
Wire Wire Line
	10650 2300 10750 2300
Wire Wire Line
	10750 2300 10750 2400
Wire Wire Line
	10650 2400 10750 2400
Wire Wire Line
	10650 2600 10750 2600
Wire Wire Line
	10750 2600 10750 2700
Wire Wire Line
	10650 2700 10750 2700
Connection ~ 10750 2700
Wire Wire Line
	10750 2700 10750 2750
Wire Wire Line
	9450 2000 9450 1850
Wire Wire Line
	9450 1850 9550 1850
Wire Wire Line
	10750 2400 10750 2600
Connection ~ 10750 2400
Connection ~ 10750 2600
Wire Wire Line
	9250 1100 9400 1100
Wire Wire Line
	7300 2150 6900 2150
Connection ~ 7300 2150
Wire Wire Line
	8000 1600 8400 1600
Wire Wire Line
	8400 3750 8400 1600
Connection ~ 8400 1600
Wire Wire Line
	8400 1600 8450 1600
Connection ~ 5750 2000
$Comp
L Regulator_Switching:LT1073CN-5 U1
U 1 1 60B3D8F9
P 5750 1600
F 0 "U1" H 5307 1646 50  0000 R CNN
F 1 "LT1073CN-5" H 5307 1555 50  0000 R CNN
F 2 "Package_DIP:DIP-8_W7.62mm" H 5800 1250 50  0001 L CNN
F 3 "https://www.analog.com/media/en/technical-documentation/data-sheets/1073fa.pdf" H 5550 2200 50  0001 C CNN
	1    5750 1600
	1    0    0    -1  
$EndComp
Wire Wire Line
	6900 2150 6900 2750
Wire Wire Line
	9250 3000 9250 3250
Wire Wire Line
	9250 3250 5900 3250
Wire Wire Line
	5900 3250 5900 4550
Wire Wire Line
	6000 4650 6000 3350
Wire Wire Line
	9650 3350 9650 3000
Wire Wire Line
	6000 3350 9650 3350
Wire Wire Line
	6100 4750 5800 4750
Wire Wire Line
	6100 4050 6100 4750
NoConn ~ 5350 1600
NoConn ~ 6150 1800
NoConn ~ 9850 3000
NoConn ~ 10050 3000
NoConn ~ 10250 3000
NoConn ~ 9850 2000
NoConn ~ 10050 2000
$Comp
L Connector_Generic:Conn_01x02 J2
U 1 1 60C07F06
P 4950 1000
F 0 "J2" H 4868 1217 50  0000 C CNN
F 1 "Conn_01x02" H 4868 1126 50  0000 C CNN
F 2 "Connector_PinHeader_1.00mm:PinHeader_1x02_P1.00mm_Vertical" H 4950 1000 50  0001 C CNN
F 3 "~" H 4950 1000 50  0001 C CNN
	1    4950 1000
	-1   0    0    -1  
$EndComp
Wire Wire Line
	5150 1000 5450 1000
Connection ~ 5550 1000
Wire Wire Line
	5550 1000 5750 1000
$Comp
L power:GND #PWR0101
U 1 1 60C0BC96
P 5150 1100
F 0 "#PWR0101" H 5150 850 50  0001 C CNN
F 1 "GND" H 5155 927 50  0000 C CNN
F 2 "" H 5150 1100 50  0001 C CNN
F 3 "" H 5150 1100 50  0001 C CNN
	1    5150 1100
	1    0    0    -1  
$EndComp
$Comp
L power:PWR_FLAG #FLG0101
U 1 1 60C0CE2C
P 5450 1000
F 0 "#FLG0101" H 5450 1075 50  0001 C CNN
F 1 "PWR_FLAG" H 5450 1173 50  0000 C CNN
F 2 "" H 5450 1000 50  0001 C CNN
F 3 "~" H 5450 1000 50  0001 C CNN
	1    5450 1000
	1    0    0    -1  
$EndComp
Connection ~ 5450 1000
Wire Wire Line
	5450 1000 5550 1000
Wire Wire Line
	8000 1600 8000 2150
$Comp
L power:PWR_FLAG #FLG0104
U 1 1 60C109BC
P 7350 2150
F 0 "#FLG0104" H 7350 2225 50  0001 C CNN
F 1 "PWR_FLAG" H 7350 2323 50  0000 C CNN
F 2 "" H 7350 2150 50  0001 C CNN
F 3 "~" H 7350 2150 50  0001 C CNN
	1    7350 2150
	1    0    0    -1  
$EndComp
Connection ~ 7350 2150
Wire Wire Line
	7350 2150 7300 2150
Wire Wire Line
	8450 2600 8850 2600
$Comp
L power:PWR_FLAG #FLG0103
U 1 1 60C12475
P 5150 1100
F 0 "#FLG0103" H 5150 1175 50  0001 C CNN
F 1 "PWR_FLAG" H 5150 1273 50  0000 C CNN
F 2 "" H 5150 1100 50  0001 C CNN
F 3 "~" H 5150 1100 50  0001 C CNN
	1    5150 1100
	1    0    0    -1  
$EndComp
Connection ~ 5150 1100
Wire Wire Line
	8600 2400 8850 2400
$Comp
L power:PWR_FLAG #FLG0102
U 1 1 60C12FA6
P 8450 1600
F 0 "#FLG0102" H 8450 1675 50  0001 C CNN
F 1 "PWR_FLAG" H 8450 1773 50  0000 C CNN
F 2 "" H 8450 1600 50  0001 C CNN
F 3 "~" H 8450 1600 50  0001 C CNN
	1    8450 1600
	1    0    0    -1  
$EndComp
$Comp
L Mechanical:MountingHole H4
U 1 1 5C7C8030
P 750 7500
F 0 "H4" H 850 7546 50  0000 L CNN
F 1 "MountingHole" H 850 7455 50  0000 L CNN
F 2 "lib:MountingHole_2.7mm_M2.5_uHAT_RPi" H 750 7500 50  0001 C CNN
F 3 "~" H 750 7500 50  0001 C CNN
	1    750  7500
	1    0    0    -1  
$EndComp
$Comp
L Mechanical:MountingHole H3
U 1 1 5C7C8014
P 750 7300
F 0 "H3" H 850 7346 50  0000 L CNN
F 1 "MountingHole" H 850 7255 50  0000 L CNN
F 2 "lib:MountingHole_2.7mm_M2.5_uHAT_RPi" H 750 7300 50  0001 C CNN
F 3 "~" H 750 7300 50  0001 C CNN
	1    750  7300
	1    0    0    -1  
$EndComp
$Comp
L Mechanical:MountingHole H2
U 1 1 5C7C7FBC
P 750 7100
F 0 "H2" H 850 7146 50  0000 L CNN
F 1 "MountingHole" H 850 7055 50  0000 L CNN
F 2 "lib:MountingHole_2.7mm_M2.5_uHAT_RPi" H 750 7100 50  0001 C CNN
F 3 "~" H 750 7100 50  0001 C CNN
	1    750  7100
	1    0    0    -1  
$EndComp
$Comp
L Mechanical:MountingHole H1
U 1 1 5C7C4C81
P 750 6900
F 0 "H1" H 850 6946 50  0000 L CNN
F 1 "MountingHole" H 850 6855 50  0000 L CNN
F 2 "lib:MountingHole_2.7mm_M2.5_uHAT_RPi" H 750 6900 50  0001 C CNN
F 3 "~" H 750 6900 50  0001 C CNN
	1    750  6900
	1    0    0    -1  
$EndComp
NoConn ~ 5600 4050
NoConn ~ 5600 3950
NoConn ~ 5600 3850
NoConn ~ 5600 3750
NoConn ~ 5600 3550
NoConn ~ 5600 3450
NoConn ~ 5600 3250
NoConn ~ 5600 3150
NoConn ~ 5600 3050
$Comp
L Connector_Generic:Conn_02x20_Odd_Even J1
U 1 1 5C77771F
P 4250 3650
F 0 "J1" H 4300 4767 50  0000 C CNN
F 1 "GPIO_CONNECTOR" H 4300 4676 50  0000 C CNN
F 2 "lib:PinSocket_2x20_P2.54mm_Vertical_Centered_Anchor" H 4250 3650 50  0001 C CNN
F 3 "~" H 4250 3650 50  0001 C CNN
	1    4250 3650
	1    0    0    -1  
$EndComp
Wire Wire Line
	4050 3150 3850 3150
Wire Wire Line
	3850 3150 3850 3950
Wire Wire Line
	4050 3950 3850 3950
Connection ~ 3850 3950
Wire Wire Line
	3850 3950 3850 4650
Wire Wire Line
	4050 4650 3850 4650
Connection ~ 3850 4650
Wire Wire Line
	3850 4650 3850 4800
Wire Wire Line
	4550 2950 4750 2950
Wire Wire Line
	4750 2950 4750 3350
Wire Wire Line
	4550 3350 4750 3350
Connection ~ 4750 3350
Wire Wire Line
	4750 3350 4750 3650
Wire Wire Line
	4550 3650 4750 3650
Connection ~ 4750 3650
Wire Wire Line
	4550 4150 4750 4150
Wire Wire Line
	4750 3650 4750 4150
Connection ~ 4750 4150
Wire Wire Line
	4750 4150 4750 4350
Wire Wire Line
	4550 4350 4750 4350
Connection ~ 4750 4350
Wire Wire Line
	4750 4350 4750 4800
Wire Wire Line
	4550 2750 4850 2750
Wire Wire Line
	4550 2850 4850 2850
Wire Wire Line
	4850 2850 4850 2750
Connection ~ 4850 2750
Text Label 3100 2850 0    50   ~ 0
GPIO2_SDA1
Text Label 3100 2950 0    50   ~ 0
GPIO3_SCL1
Text Label 3100 3050 0    50   ~ 0
GPIO4_GPIO_GCLK
Text Label 3100 3250 0    50   ~ 0
GPIO17_GEN0
Text Label 3100 3350 0    50   ~ 0
GPIO27_GEN2
Text Label 3100 3450 0    50   ~ 0
GPIO22_GEN3
Text Label 3100 3650 0    50   ~ 0
GPIO10_SPI_MOSI
Wire Wire Line
	3000 3650 4050 3650
Wire Wire Line
	3000 3750 4050 3750
Wire Wire Line
	3000 3850 4050 3850
Wire Wire Line
	3000 4050 4050 4050
Wire Wire Line
	3000 4150 4050 4150
Wire Wire Line
	3000 4250 4050 4250
Wire Wire Line
	3000 4350 4050 4350
Wire Wire Line
	3000 4450 4050 4450
Wire Wire Line
	3000 4550 4050 4550
Wire Wire Line
	3000 3450 4050 3450
Wire Wire Line
	3000 3350 4050 3350
Wire Wire Line
	3000 3250 4050 3250
Wire Wire Line
	3000 3050 4050 3050
Wire Wire Line
	3000 2950 4050 2950
Wire Wire Line
	3000 2850 4050 2850
Text Label 3100 3750 0    50   ~ 0
GPIO9_SPI_MISO
Text Label 3100 3850 0    50   ~ 0
GPIO11_SPI_SCLK
Text Label 3100 4050 0    50   ~ 0
ID_SD
Text Label 3100 4150 0    50   ~ 0
GPIO5
Text Label 3100 4250 0    50   ~ 0
GPIO6
Text Label 3100 4350 0    50   ~ 0
GPIO13
Text Label 3100 4450 0    50   ~ 0
GPIO19
Text Label 3100 4550 0    50   ~ 0
GPIO26
NoConn ~ 3000 2850
NoConn ~ 3000 2950
NoConn ~ 3000 3050
NoConn ~ 3000 3250
NoConn ~ 3000 3350
NoConn ~ 3000 3450
NoConn ~ 3000 3650
NoConn ~ 3000 3750
NoConn ~ 3000 3850
NoConn ~ 3000 4050
NoConn ~ 3000 4150
NoConn ~ 3000 4250
NoConn ~ 3000 4350
NoConn ~ 3000 4450
NoConn ~ 3000 4550
Text Label 4900 3050 0    50   ~ 0
GPIO14_TXD0
Text Label 4900 3150 0    50   ~ 0
GPIO15_RXD0
Text Label 4900 3250 0    50   ~ 0
GPIO18_GEN1
Text Label 4900 3450 0    50   ~ 0
GPIO23_GEN4
Text Label 4900 3550 0    50   ~ 0
GPIO24_GEN5
Text Label 4900 3750 0    50   ~ 0
GPIO25_GEN6
Text Label 4900 3850 0    50   ~ 0
GPIO8_SPI_CE0_N
Text Label 4900 3950 0    50   ~ 0
GPIO7_SPI_CE1_N
Wire Wire Line
	4550 3850 5600 3850
Wire Wire Line
	4550 3950 5600 3950
Text Label 4900 4050 0    50   ~ 0
ID_SC
Text Label 4900 4250 0    50   ~ 0
GPIO12
Text Label 4900 4450 0    50   ~ 0
GPIO16
Text Label 4900 4550 0    50   ~ 0
GPIO20
Text Label 4900 4650 0    50   ~ 0
GPIO21
Wire Wire Line
	4550 3050 5600 3050
Wire Wire Line
	4550 3150 5600 3150
Wire Wire Line
	4550 3250 5600 3250
Wire Wire Line
	4550 3450 5600 3450
Wire Wire Line
	4550 3550 5600 3550
Wire Wire Line
	4550 3750 5600 3750
Wire Wire Line
	4550 4050 5600 4050
$Comp
L power:GND #PWR0102
U 1 1 5C777838
P 4750 4800
F 0 "#PWR0102" H 4750 4550 50  0001 C CNN
F 1 "GND" H 4755 4627 50  0001 C CNN
F 2 "" H 4750 4800 50  0001 C CNN
F 3 "" H 4750 4800 50  0001 C CNN
	1    4750 4800
	1    0    0    -1  
$EndComp
$Comp
L power:GND #PWR0105
U 1 1 5C777805
P 3850 4800
F 0 "#PWR0105" H 3850 4550 50  0001 C CNN
F 1 "GND" H 3855 4627 50  0001 C CNN
F 2 "" H 3850 4800 50  0001 C CNN
F 3 "" H 3850 4800 50  0001 C CNN
	1    3850 4800
	1    0    0    -1  
$EndComp
Wire Wire Line
	4550 4550 5900 4550
Wire Wire Line
	4550 4650 6000 4650
Wire Wire Line
	5800 4750 5800 4250
Wire Wire Line
	4550 4250 5800 4250
Wire Wire Line
	4850 2750 6900 2750
NoConn ~ 4050 3550
NoConn ~ 4050 2750
$Comp
L Device:LED D4
U 1 1 60CD6E27
P 9500 1500
F 0 "D4" V 9447 1580 50  0000 L CNN
F 1 "LED" V 9538 1580 50  0000 L CNN
F 2 "LED_THT:LED_D1.8mm_W1.8mm_H2.4mm_Horizontal_O1.27mm_Z1.6mm" H 9500 1500 50  0001 C CNN
F 3 "~" H 9500 1500 50  0001 C CNN
	1    9500 1500
	0    1    1    0   
$EndComp
$Comp
L Device:LED D2
U 1 1 60CD875B
P 9000 1500
F 0 "D2" V 9039 1382 50  0000 R CNN
F 1 "LED" V 8948 1382 50  0000 R CNN
F 2 "LED_THT:LED_D1.8mm_W1.8mm_H2.4mm_Horizontal_O1.27mm_Z1.6mm" H 9000 1500 50  0001 C CNN
F 3 "~" H 9000 1500 50  0001 C CNN
	1    9000 1500
	0    -1   -1   0   
$EndComp
Wire Wire Line
	9250 1800 9500 1800
Wire Wire Line
	9500 1800 9500 1650
Wire Wire Line
	9500 1250 9250 1250
Wire Wire Line
	9000 1250 9000 1350
Wire Wire Line
	9000 1800 9250 1800
Wire Wire Line
	9500 1350 9500 1250
Wire Wire Line
	9000 1650 9000 1800
Connection ~ 9250 1800
Wire Wire Line
	9250 1100 9250 1250
Connection ~ 9250 1250
Wire Wire Line
	9250 1250 9000 1250
Text Label 8400 4050 0    50   ~ 0
Motor_feedback
Text Label 9400 1100 0    50   ~ 0
+_motor
Text Label 9550 1850 0    50   ~ 0
-_motor
$Comp
L Connector_Generic:Conn_01x01 J4
U 1 1 60D0D2D0
P 9600 1100
F 0 "J4" H 9680 1142 50  0000 L CNN
F 1 "Conn_01x01" H 9680 1051 50  0000 L CNN
F 2 "Connector_PinHeader_1.00mm:PinHeader_1x01_P1.00mm_Vertical" H 9600 1100 50  0001 C CNN
F 3 "~" H 9600 1100 50  0001 C CNN
	1    9600 1100
	1    0    0    -1  
$EndComp
$Comp
L Connector_Generic:Conn_01x01 J3
U 1 1 60D0E1A6
P 8600 4050
F 0 "J3" H 8680 4092 50  0000 L CNN
F 1 "Conn_01x01" H 8680 4001 50  0000 L CNN
F 2 "Connector_PinHeader_1.00mm:PinHeader_1x01_P1.00mm_Vertical" H 8600 4050 50  0001 C CNN
F 3 "~" H 8600 4050 50  0001 C CNN
	1    8600 4050
	1    0    0    -1  
$EndComp
$Comp
L Connector_Generic:Conn_01x01 J5
U 1 1 60D0F065
P 9750 1850
F 0 "J5" H 9830 1892 50  0000 L CNN
F 1 "Conn_01x01" H 9830 1801 50  0000 L CNN
F 2 "Connector_PinHeader_1.00mm:PinHeader_1x01_P1.00mm_Vertical" H 9750 1850 50  0001 C CNN
F 3 "~" H 9750 1850 50  0001 C CNN
	1    9750 1850
	1    0    0    -1  
$EndComp
Text Notes 7000 6750 0    50   ~ 0
CRTBRA002, STRTHO008, THMNAT011\n
Text Notes 6150 6450 0    118  Italic 24
TITLE: RASPBERRY PI HAT FOR MOTOR SERVO FEEDBACK
Wire Wire Line
	9450 3000 9450 4600
Wire Wire Line
	9450 4600 6200 4600
Wire Wire Line
	6200 4600 6200 4450
Wire Wire Line
	6200 4450 4550 4450
$EndSCHEMATC
