Version 4
SHEET 1 880 680
WIRE 432 192 80 192
WIRE 80 224 80 192
WIRE 432 240 432 192
WIRE 432 496 432 384
FLAG 80 304 0
FLAG 432 496 0
SYMBOL voltage 80 208 R0
WINDOW 3 140 107 Bottom 2
SYMATTR InstName V1
SYMATTR Value PULSE(0 5 0 0 2 2 5)
SYMBOL LED 416 320 R0
SYMATTR InstName D1
SYMATTR Value LXK2-PW14
SYMBOL res 416 224 R0
SYMATTR InstName R1
SYMATTR Value 1
TEXT 576 120 Left 2 !.tran 0 4 0 1.0
