EESchema Schematic File Version 4
EELAYER 30 0
EELAYER END
$Descr A4 11693 8268
encoding utf-8
Sheet 1 1
Title ""
Date ""
Rev ""
Comp ""
Comment1 ""
Comment2 ""
Comment3 ""
Comment4 ""
$EndDescr
$Comp
L Device:R_Small R1
U 1 1 60B3D237
P 4150 2600
F 0 "R1" H 4209 2646 50  0000 L CNN
F 1 "500" H 4209 2555 50  0000 L CNN
F 2 "" H 4150 2600 50  0001 C CNN
F 3 "~" H 4150 2600 50  0001 C CNN
	1    4150 2600
	1    0    0    -1  
$EndComp
$Comp
L Device:LED_Dual_2pin D1
U 1 1 60B3D98A
P 4150 3000
F 0 "D1" V 4196 3258 50  0000 L CNN
F 1 "LED_Dual_2pin" V 4105 3258 50  0000 L CNN
F 2 "" H 4150 3000 50  0001 C CNN
F 3 "~" H 4150 3000 50  0001 C CNN
	1    4150 3000
	0    1    -1   0   
$EndComp
$Comp
L Device:R_Small R2
U 1 1 60B3FB06
P 5250 2600
F 0 "R2" H 5309 2646 50  0000 L CNN
F 1 "1" H 5309 2555 50  0000 L CNN
F 2 "" H 5250 2600 50  0001 C CNN
F 3 "~" H 5250 2600 50  0001 C CNN
	1    5250 2600
	1    0    0    -1  
$EndComp
$Comp
L Device:LED D2
U 1 1 60B408D6
P 5250 2850
F 0 "D2" V 5289 2732 50  0000 R CNN
F 1 "LED" V 5198 2732 50  0000 R CNN
F 2 "" H 5250 2850 50  0001 C CNN
F 3 "~" H 5250 2850 50  0001 C CNN
	1    5250 2850
	0    -1   -1   0   
$EndComp
$Comp
L power:GND #PWR01
U 1 1 60B41224
P 5250 3000
F 0 "#PWR01" H 5250 2750 50  0001 C CNN
F 1 "GND" H 5255 2827 50  0000 C CNN
F 2 "" H 5250 3000 50  0001 C CNN
F 3 "" H 5250 3000 50  0001 C CNN
	1    5250 3000
	1    0    0    -1  
$EndComp
Text Label 5250 2500 0    50   ~ 0
+5V
Text Label 4150 2500 0    50   ~ 0
L293D_Pin3
Text Label 4150 3300 0    50   ~ 0
Motor
Text Notes 7400 7500 0    50   ~ 0
Status LEDs\n
Text Notes 8150 7700 0    50   ~ 0
30-05-2021\n\n
Text Notes 7150 6800 0    157  ~ 0
EEE3088F - Hand_in_3\n
Text Notes 8050 7300 0    50   ~ 0
CRTBRA002, THMNAT011, STRTHO008
$EndSCHEMATC
