EESchema Schematic File Version 4
EELAYER 30 0
EELAYER END
$Descr A4 11693 8268
encoding utf-8
Sheet 1 1
Title ""
Date ""
Rev ""
Comp ""
Comment1 ""
Comment2 ""
Comment3 ""
Comment4 ""
$EndDescr
Text Notes 7100 6750 0    157  ~ 0
EEE3088F-Hand_in_3\n
Text Notes 7400 7500 0    50   ~ 0
Amplifier circuit\n
Text Notes 8100 7650 0    50   ~ 0
29-05-2021
$Comp
L Device:R_Small R1
U 1 1 60B3CD71
P 8050 5800
F 0 "R1" V 7854 5800 50  0000 C CNN
F 1 "1k" V 7945 5800 50  0000 C CNN
F 2 "" H 8050 5800 50  0001 C CNN
F 3 "~" H 8050 5800 50  0001 C CNN
	1    8050 5800
	0    1    1    0   
$EndComp
$Comp
L Device:R_Small R2
U 1 1 60B3D542
P 8650 5700
F 0 "R2" V 8454 5700 50  0000 C CNN
F 1 "330" V 8545 5700 50  0000 C CNN
F 2 "" H 8650 5700 50  0001 C CNN
F 3 "~" H 8650 5700 50  0001 C CNN
	1    8650 5700
	0    1    1    0   
$EndComp
$Comp
L Device:R_Small R3
U 1 1 60B3E23E
P 9200 6000
F 0 "R3" V 9004 6000 50  0000 C CNN
F 1 "1k" V 9095 6000 50  0000 C CNN
F 2 "" H 9200 6000 50  0001 C CNN
F 3 "~" H 9200 6000 50  0001 C CNN
	1    9200 6000
	0    1    1    0   
$EndComp
$Comp
L Device:R_Small R4
U 1 1 60B3F4EB
P 9400 5750
F 0 "R4" V 9204 5750 50  0000 C CNN
F 1 "1k" V 9295 5750 50  0000 C CNN
F 2 "" H 9400 5750 50  0001 C CNN
F 3 "~" H 9400 5750 50  0001 C CNN
	1    9400 5750
	0    1    1    0   
$EndComp
$Comp
L Amplifier_Operational:LM358 U1
U 1 1 60B43FAC
P 8800 6000
F 0 "U1" H 8800 6367 50  0000 C CNN
F 1 "LM358" H 8800 6276 50  0000 C CNN
F 2 "" H 8800 6000 50  0001 C CNN
F 3 "http://www.ti.com/lit/ds/symlink/lm2904-n.pdf" H 8800 6000 50  0001 C CNN
	1    8800 6000
	1    0    0    1   
$EndComp
Wire Wire Line
	7800 5800 7950 5800
Wire Wire Line
	8450 5900 8450 5700
Wire Wire Line
	8450 5700 8550 5700
Wire Wire Line
	8450 5900 8500 5900
Connection ~ 9100 6000
Wire Wire Line
	9100 5700 8750 5700
Wire Wire Line
	9100 5700 9100 6000
Wire Wire Line
	9300 6000 9300 5750
$Comp
L Amplifier_Operational:LM358 U2
U 1 1 60B5BEB5
P 9600 6100
F 0 "U2" H 9600 5733 50  0000 C CNN
F 1 "LM358" H 9600 5824 50  0000 C CNN
F 2 "" H 9600 6100 50  0001 C CNN
F 3 "http://www.ti.com/lit/ds/symlink/lm2904-n.pdf" H 9600 6100 50  0001 C CNN
	1    9600 6100
	1    0    0    1   
$EndComp
Connection ~ 9300 6000
Wire Wire Line
	9500 5750 9900 5750
Wire Wire Line
	9900 5750 9900 6100
$Comp
L power:GND #PWR02
U 1 1 60B5EDF6
P 9300 6200
F 0 "#PWR02" H 9300 5950 50  0001 C CNN
F 1 "GND" H 9305 6027 50  0000 C CNN
F 2 "" H 9300 6200 50  0001 C CNN
F 3 "" H 9300 6200 50  0001 C CNN
	1    9300 6200
	1    0    0    -1  
$EndComp
Text GLabel 7800 5800 0    50   Input ~ 0
input_signal
$Comp
L Device:R_Small R5
U 1 1 60B6A95D
P 8050 6100
F 0 "R5" V 7854 6100 50  0000 C CNN
F 1 "1k" V 7945 6100 50  0000 C CNN
F 2 "" H 8050 6100 50  0001 C CNN
F 3 "~" H 8050 6100 50  0001 C CNN
	1    8050 6100
	0    1    1    0   
$EndComp
Text GLabel 7950 6100 0    50   Input ~ 0
+5V_from_supply
Wire Wire Line
	8150 6100 8350 6100
Wire Wire Line
	8150 5800 8350 5800
Wire Wire Line
	8350 5800 8350 5900
Wire Wire Line
	8450 5900 8350 5900
Connection ~ 8450 5900
Connection ~ 8350 5900
Wire Wire Line
	8350 5900 8350 6100
$Comp
L power:GND #PWR01
U 1 1 60B6D05E
P 8500 6100
F 0 "#PWR01" H 8500 5850 50  0001 C CNN
F 1 "GND" H 8505 5927 50  0000 C CNN
F 2 "" H 8500 6100 50  0001 C CNN
F 3 "" H 8500 6100 50  0001 C CNN
	1    8500 6100
	1    0    0    -1  
$EndComp
Wire Wire Line
	9900 6100 10250 6100
Connection ~ 9900 6100
Text GLabel 10250 6100 2    50   Input ~ 0
output_signal
Text Notes 8100 7300 0    50   ~ 0
CRTBRA002, STRTHO008, THMNAT011
$EndSCHEMATC
